5 Working with APIs and Functions – Modern R for Public Health Practitioners
…
5.2.2 Extracting data from responses

We have a response - now where is our data? We need to pull it out of the body of the response and then convert it into an R dataframe.

my_odp_data <-
  odp_response |>
  resp_body_json() |> # extract the data, it's returned as an R list
  bind_rows() # for this endpoint we can easily convert to a dataframe

my_odp_data

# A tibble: 1,000 × 16
   lastupdatedate          town_no town        towntotalcases townconfirmedcases
   <chr>                   <chr>   <chr>       <chr>          <chr>             
 1 2022-06-24T00:00:00.000 1       Andover     514            439               
 2 2022-06-24T00:00:00.000 2       Ansonia     4911           4222              
 3 2022-06-24T00:00:00.000 3       Ashford     744            671               
 4 2022-06-24T00:00:00.000 4       Avon        3030           2773              
 5 2022-06-24T00:00:00.000 5       Barkhamsted 527            490               
 6 2022-06-24T00:00:00.000 6       Beacon Fal… 1306           1163              
 7 2022-06-24T00:00:00.000 7       Berlin      4098           3751              
 8 2022-06-24T00:00:00.000 8       Bethany     991            901               
 9 2022-06-24T00:00:00.000 9       Bethel      4090           3345              
10 2022-06-24T00:00:00.000 10      Bethlehem   620            529               
# ℹ 990 more rows
# ℹ 11 more variables: townprobablecases <chr>, towncaserate <chr>,
#   towntotaldeaths <chr>, townconfirmeddeaths <chr>, townprobabledeaths <chr>,
#   peopletested <chr>, ratetested100k <chr>, numberoftests <chr>,
#   numberofpositives <chr>, numberofnegatives <chr>,
#   numberofindeterminates <chr>
…
data <-
  resps |>
  resps_data(
    \(resp) {
      # declare the name of each item in our resps list
      resp |> # for each response in our responses
        resp_body_json() |> # convert the json to a list
        bind_rows() # bind these into a dataframe
    }
  )

data

# A tibble: 5,000 × 16
   lastupdatedate          town_no town        towntotalcases townconfirmedcases
   <chr>                   <chr>   <chr>       <chr>          <chr>             
 1 2022-06-24T00:00:00.000 1       Andover     514            439               
 2 2022-06-24T00:00:00.000 2       Ansonia     4911           4222              
 3 2022-06-24T00:00:00.000 3       Ashford     744            671               
 4 2022-06-24T00:00:00.000 4       Avon        3030           2773              
 5 2022-06-24T00:00:00.000 5       Barkhamsted 527            490               
 6 2022-06-24T00:00:00.000 6       Beacon Fal… 1306           1163              
 7 2022-06-24T00:00:00.000 7       Berlin      4098           3751              
 8 2022-06-24T00:00:00.000 8       Bethany     991            901               
 9 2022-06-24T00:00:00.000 9       Bethel      4090           3345              
10 2022-06-24T00:00:00.000 10      Bethlehem   620            529               
# ℹ 4,990 more rows
# ℹ 11 more variables: townprobablecases <chr>, towncaserate <chr>,
#   towntotaldeaths <chr>, townconfirmeddeaths <chr>, townprobabledeaths <chr>,
#   peopletested <chr>, ratetested100k <chr>, numberoftests <chr>,
#   numberofpositives <chr>, numberofnegatives <chr>,
#   numberofindeterminates <chr>
…
    return(data)
  }

We wrote our function, now let us take it for a spin. Our resource ID was 28fr-iqnx.

resource <- "28fr-iqnx"
covid_data <- fetch_all_data(resource = resource)

covid_data

# A tibble: 102,245 × 16
   lastupdatedate          town_no town        towntotalcases townconfirmedcases
   <chr>                   <chr>   <chr>       <chr>          <chr>             
 1 2022-06-24T00:00:00.000 1       Andover     514            439               
 2 2022-06-24T00:00:00.000 2       Ansonia     4911           4222              
 3 2022-06-24T00:00:00.000 3       Ashford     744            671               
 4 2022-06-24T00:00:00.000 4       Avon        3030           2773              
 5 2022-06-24T00:00:00.000 5       Barkhamsted 527            490               
 6 2022-06-24T00:00:00.000 6       Beacon Fal… 1306           1163              
 7 2022-06-24T00:00:00.000 7       Berlin      4098           3751              
 8 2022-06-24T00:00:00.000 8       Bethany     991            901               
 9 2022-06-24T00:00:00.000 9       Bethel      4090           3345              
10 2022-06-24T00:00:00.000 10      Bethlehem   620            529               
# ℹ 102,235 more rows
# ℹ 11 more variables: townprobablecases <chr>, towncaserate <chr>,
#   towntotaldeaths <chr>, townconfirmeddeaths <chr>, townprobabledeaths <chr>,
#   peopletested <chr>, ratetested100k <chr>, numberoftests <chr>,
#   numberofpositives <chr>, numberofnegatives <chr>,
#   numberofindeterminates <chr>
…
